…
# group_by
my_data %>%
    group_by(GDP.nominal.2017.)

## # A tibble: 96 x 9
## # Groups:   GDP.nominal.2017. [96]
##    Country Average.Height.… Average.Weight.… Average.BMI.Male Average.Height.…
##    <fct>              <dbl>            <dbl>            <dbl>            <dbl>
##  1 Nether…             1.83             87.4             26.1             1.69
##  2 Latvia              1.81             88.8             27.1             1.69
##  3 Denmark             1.81             86.2             26.3             1.68
##  4 Estonia             1.81             88.5             27               1.68
##  5 Iceland             1.81             88.8             27.1             1.67
##  6 Serbia              1.81             87.5             26.7             1.67
##  7 Belgium             1.81             87.8             26.8             1.65
##  8 Croatia             1.8              90.7             28               1.66
##  9 Norway              1.8              88.8             27.4             1.66
## 10 Sweden              1.8              86.8             26.8             1.66
## # … with 86 more rows, and 4 more variables: Average.Weight.Female <dbl>,
## #   Average.BMI.Female <dbl>, X. <int>, GDP.nominal.2017. <dbl>
…
